10: Projection, Outliers, and Influence.
…
---

<img src="ProjectionOutliersInfluence_files/figure-html/unnamed-chunk-7-1.png" width="70%" style="display: block; margin: auto;" />

---

``` r
print(turnouttrim,n=15)
```

```
## # A tibble: 38 × 4
##     Year Turnout Temperature   GDP
##    <dbl>   <dbl>       <dbl> <dbl>
##  1  1876    0.82        51.5  7910
##  2  1880    0.79        48.6 10510
##  3  1884    0.78        51   10970
##  4  1888    0.79        53   12420
##  5  1892    0.75        51.2 14300
##  6  1896    0.79        51.6 13300
##  7  1900    0.73        53.9 18700
##  8  1904    0.65        51.8 22900
##  9  1908    0.65        50.1 27700
## 10  1912    0.59        50.9 39400
## 11  1916    0.62        51.1 48300
## 12  1920    0.49        51.3 91500
## 13  1924    0.49        51.5 84700
## 14  1928    0.57        50.7 97000
## 15  1932    0.53        48.2 58500
## # ℹ 23 more rows
```
…
